{
  "version": "0.3.14-fixed",
  "steps": [
    {
      "tag": "CreateModel",
      "model": "Date"
    },
    {
      "tag": "CreateField",
      "model": "Date",
      "field": "id",
      "type": "String",
      "arity": "Required"
    },
    {
      "tag": "CreateDirective",
      "location": {
        "path": {
          "tag": "Field",
          "model": "Date",
          "field": "id"
        },
        "directive": "default"
      }
    },
    {
      "tag": "CreateArgument",
      "location": {
        "tag": "Directive",
        "path": {
          "tag": "Field",
          "model": "Date",
          "field": "id"
        },
        "directive": "default"
      },
      "argument": "",
      "value": "cuid()"
    },
    {
      "tag": "CreateDirective",
      "location": {
        "path": {
          "tag": "Field",
          "model": "Date",
          "field": "id"
        },
        "directive": "id"
      }
    },
    {
      "tag": "CreateField",
      "model": "Date",
      "field": "month",
      "type": "String",
      "arity": "Required"
    },
    {
      "tag": "CreateField",
      "model": "Date",
      "field": "month_nbr",
      "type": "Int",
      "arity": "Required"
    },
    {
      "tag": "CreateField",
      "model": "Date",
      "field": "day",
      "type": "Int",
      "arity": "Required"
    },
    {
      "tag": "CreateField",
      "model": "Date",
      "field": "year",
      "type": "Int",
      "arity": "Required"
    },
    {
      "tag": "CreateModel",
      "model": "Task"
    },
    {
      "tag": "CreateField",
      "model": "Task",
      "field": "id",
      "type": "String",
      "arity": "Required"
    },
    {
      "tag": "CreateDirective",
      "location": {
        "path": {
          "tag": "Field",
          "model": "Task",
          "field": "id"
        },
        "directive": "default"
      }
    },
    {
      "tag": "CreateArgument",
      "location": {
        "tag": "Directive",
        "path": {
          "tag": "Field",
          "model": "Task",
          "field": "id"
        },
        "directive": "default"
      },
      "argument": "",
      "value": "cuid()"
    },
    {
      "tag": "CreateDirective",
      "location": {
        "path": {
          "tag": "Field",
          "model": "Task",
          "field": "id"
        },
        "directive": "id"
      }
    },
    {
      "tag": "CreateField",
      "model": "Task",
      "field": "title",
      "type": "String",
      "arity": "Required"
    },
    {
      "tag": "CreateField",
      "model": "Task",
      "field": "date",
      "type": "String",
      "arity": "Required"
    },
    {
      "tag": "CreateField",
      "model": "Task",
      "field": "startTime",
      "type": "String",
      "arity": "Required"
    },
    {
      "tag": "CreateField",
      "model": "Task",
      "field": "endTime",
      "type": "String",
      "arity": "Required"
    },
    {
      "tag": "CreateField",
      "model": "Task",
      "field": "completed",
      "type": "Boolean",
      "arity": "Required"
    },
    {
      "tag": "CreateDirective",
      "location": {
        "path": {
          "tag": "Field",
          "model": "Task",
          "field": "completed"
        },
        "directive": "default"
      }
    },
    {
      "tag": "CreateArgument",
      "location": {
        "tag": "Directive",
        "path": {
          "tag": "Field",
          "model": "Task",
          "field": "completed"
        },
        "directive": "default"
      },
      "argument": "",
      "value": "false"
    },
    {
      "tag": "DeleteModel",
      "model": "Todo"
    },
    {
      "tag": "CreateField",
      "model": "User",
      "field": "email",
      "type": "String",
      "arity": "Required"
    },
    {
      "tag": "CreateDirective",
      "location": {
        "path": {
          "tag": "Field",
          "model": "User",
          "field": "email"
        },
        "directive": "default"
      }
    },
    {
      "tag": "CreateArgument",
      "location": {
        "tag": "Directive",
        "path": {
          "tag": "Field",
          "model": "User",
          "field": "email"
        },
        "directive": "default"
      },
      "argument": "",
      "value": "\"test@test.fr\""
    },
    {
      "tag": "CreateField",
      "model": "User",
      "field": "password",
      "type": "String",
      "arity": "Required"
    },
    {
      "tag": "CreateDirective",
      "location": {
        "path": {
          "tag": "Field",
          "model": "User",
          "field": "password"
        },
        "directive": "default"
      }
    },
    {
      "tag": "CreateArgument",
      "location": {
        "tag": "Directive",
        "path": {
          "tag": "Field",
          "model": "User",
          "field": "password"
        },
        "directive": "default"
      },
      "argument": "",
      "value": "\"azerazer\""
    },
    {
      "tag": "CreateField",
      "model": "User",
      "field": "tasks",
      "type": "Task",
      "arity": "List"
    },
    {
      "tag": "DeleteField",
      "model": "User",
      "field": "todos"
    }
  ]
}