{
  "version": "0.3.14-fixed",
  "steps": [
    {
      "tag": "CreateField",
      "model": "User",
      "field": "dates",
      "type": "Date",
      "arity": "List"
    },
    {
      "tag": "DeleteField",
      "model": "User",
      "field": "tasks"
    },
    {
      "tag": "CreateField",
      "model": "Date",
      "field": "date",
      "type": "String",
      "arity": "Required"
    },
    {
      "tag": "CreateField",
      "model": "Date",
      "field": "workTime",
      "type": "Int",
      "arity": "Required"
    },
    {
      "tag": "CreateField",
      "model": "Date",
      "field": "tasks",
      "type": "Task",
      "arity": "List"
    },
    {
      "tag": "DeleteField",
      "model": "Date",
      "field": "month"
    },
    {
      "tag": "DeleteField",
      "model": "Date",
      "field": "day"
    },
    {
      "tag": "DeleteField",
      "model": "Date",
      "field": "year"
    },
    {
      "tag": "DeleteField",
      "model": "Date",
      "field": "monthNbr"
    },
    {
      "tag": "CreateField",
      "model": "Task",
      "field": "dateId",
      "type": "String",
      "arity": "Required"
    },
    {
      "tag": "CreateField",
      "model": "Task",
      "field": "beginHour",
      "type": "String",
      "arity": "Required"
    },
    {
      "tag": "CreateField",
      "model": "Task",
      "field": "duration",
      "type": "String",
      "arity": "Required"
    },
    {
      "tag": "DeleteField",
      "model": "Task",
      "field": "date"
    },
    {
      "tag": "DeleteField",
      "model": "Task",
      "field": "startTime"
    },
    {
      "tag": "DeleteField",
      "model": "Task",
      "field": "endTime"
    }
  ]
}